%YAML 1.1
%TAG !u! tag:unity3d.com,2011:
--- !u!1 &565504376134717147
GameObject:
  m_ObjectHideFlags: 0
  m_CorrespondingSourceObject: {fileID: 0}
  m_PrefabInstance: {fileID: 0}
  m_PrefabAsset: {fileID: 0}
  serializedVersion: 6
  m_Component:
  - component: {fileID: 5905685740432976054}
  - component: {fileID: 7356461171285814010}
  - component: {fileID: 9138847929008668657}
  m_Layer: 0
  m_Name: Layer1
  m_TagString: Untagged
  m_Icon: {fileID: 0}
  m_NavMeshLayer: 0
  m_StaticEditorFlags: 0
  m_IsActive: 1
--- !u!4 &5905685740432976054
Transform:
  m_ObjectHideFlags: 0
  m_CorrespondingSourceObject: {fileID: 0}
  m_PrefabInstance: {fileID: 0}
  m_PrefabAsset: {fileID: 0}
  m_GameObject: {fileID: 565504376134717147}
  serializedVersion: 2
  m_LocalRotation: {x: -0, y: -0, z: -0, w: 1}
  m_LocalPosition: {x: 0, y: 0, z: 0}
  m_LocalScale: {x: 1, y: 1, z: 1}
  m_ConstrainProportionsScale: 0
  m_Children: []
  m_Father: {fileID: 886872301419905290}
  m_LocalEulerAnglesHint: {x: 0, y: 0, z: 0}
--- !u!1839735485 &7356461171285814010
Tilemap:
  m_ObjectHideFlags: 0
  m_CorrespondingSourceObject: {fileID: 0}
  m_PrefabInstance: {fileID: 0}
  m_PrefabAsset: {fileID: 0}
  m_GameObject: {fileID: 565504376134717147}
  m_Enabled: 1
  m_Tiles:
  - first: {x: 2, y: -15, z: 0}
    second:
      serializedVersion: 2
      m_TileIndex: 128
      m_TileSpriteIndex: 127
      m_TileMatrixIndex: 0
      m_TileColorIndex: 0
      m_TileObjectToInstantiateIndex: 65535
      dummyAlignment: 0
      m_AllTileFlags: 1073741825
  - first: {x: 3, y: -15, z: 0}
    second:
      serializedVersion: 2
      m_TileIndex: 127
      m_TileSpriteIndex: 126
      m_TileMatrixIndex: 0
      m_TileColorIndex: 0
      m_TileObjectToInstantiateIndex: 65535
      dummyAlignment: 0
      m_AllTileFlags: 1073741825
  - first: {x: 4, y: -15, z: 0}
    second:
      serializedVersion: 2
      m_TileIndex: 126
      m_TileSpriteIndex: 125
      m_TileMatrixIndex: 0
      m_TileColorIndex: 0
      m_TileObjectToInstantiateIndex: 65535
      dummyAlignment: 0
      m_AllTileFlags: 1073741825
  - first: {x: 2, y: -14, z: 0}
    second:
      serializedVersion: 2
      m_TileIndex: 125
      m_TileSpriteIndex: 124
      m_TileMatrixIndex: 0
      m_TileColorIndex: 0
      m_TileObjectToInstantiateIndex: 65535
      dummyAlignment: 0
      m_AllTileFlags: 1073741825
  - first: {x: 3, y: -14, z: 0}
    second:
      serializedVersion: 2
      m_TileIndex: 124
      m_TileSpriteIndex: 123
      m_TileMatrixIndex: 0
      m_TileColorIndex: 0
      m_TileObjectToInstantiateIndex: 65535
      dummyAlignment: 0
      m_AllTileFlags: 1073741825
  - first: {x: 4, y: -14, z: 0}
    second:
      serializedVersion: 2
      m_TileIndex: 123
      m_TileSpriteIndex: 122
      m_TileMatrixIndex: 0
      m_TileColorIndex: 0
      m_TileObjectToInstantiateIndex: 65535
      dummyAlignment: 0
      m_AllTileFlags: 1073741825
  - first: {x: 2, y: -13, z: 0}
    second:
      serializedVersion: 2
      m_TileIndex: 122
      m_TileSpriteIndex: 121
      m_TileMatrixIndex: 0
      m_TileColorIndex: 0
      m_TileObjectToInstantiateIndex: 65535
      dummyAlignment: 0
      m_AllTileFlags: 1073741825
  - first: {x: 3, y: -13, z: 0}
    second:
      serializedVersion: 2
      m_TileIndex: 121
      m_TileSpriteIndex: 120
      m_TileMatrixIndex: 0
      m_TileColorIndex: 0
      m_TileObjectToInstantiateIndex: 65535
      dummyAlignment: 0
      m_AllTileFlags: 1073741825
  - first: {x: 4, y: -13, z: 0}
    second:
      serializedVersion: 2
      m_TileIndex: 120
      m_TileSpriteIndex: 113
      m_TileMatrixIndex: 0
      m_TileColorIndex: 0
      m_TileObjectToInstantiateIndex: 65535
      dummyAlignment: 0
      m_AllTileFlags: 1073741825
  - first: {x: 2, y: -12, z: 0}
    second:
      serializedVersion: 2
      m_TileIndex: 115
      m_TileSpriteIndex: 115
      m_TileMatrixIndex: 0
      m_TileColorIndex: 0
      m_TileObjectToInstantiateIndex: 65535
      dummyAlignment: 0
      m_AllTileFlags: 1073741825
  - first: {x: 3, y: -12, z: 0}
    second:
      serializedVersion: 2
      m_TileIndex: 114
      m_TileSpriteIndex: 114
      m_TileMatrixIndex: 0
      m_TileColorIndex: 0
      m_TileObjectToInstantiateIndex: 65535
      dummyAlignment: 0
      m_AllTileFlags: 1073741825
  - first: {x: 4, y: -12, z: 0}
    second:
      serializedVersion: 2
      m_TileIndex: 113
      m_TileSpriteIndex: 128
      m_TileMatrixIndex: 0
      m_TileColorIndex: 0
      m_TileObjectToInstantiateIndex: 65535
      dummyAlignment: 0
      m_AllTileFlags: 1073741825
  - first: {x: 5, y: -12, z: 0}
    second:
      serializedVersion: 2
      m_TileIndex: 119
      m_TileSpriteIndex: 119
      m_TileMatrixIndex: 0
      m_TileColorIndex: 0
      m_TileObjectToInstantiateIndex: 65535
      dummyAlignment: 0
      m_AllTileFlags: 1073741825
  - first: {x: 6, y: -12, z: 0}
    second:
      serializedVersion: 2
      m_TileIndex: 118
      m_TileSpriteIndex: 118
      m_TileMatrixIndex: 0
      m_TileColorIndex: 0
      m_TileObjectToInstantiateIndex: 65535
      dummyAlignment: 0
      m_AllTileFlags: 1073741825
  - first: {x: 7, y: -12, z: 0}
    second:
      serializedVersion: 2
      m_TileIndex: 117
      m_TileSpriteIndex: 117
      m_TileMatrixIndex: 0
      m_TileColorIndex: 0
      m_TileObjectToInstantiateIndex: 65535
      dummyAlignment: 0
      m_AllTileFlags: 1073741825
  - first: {x: 8, y: -12, z: 0}
    second:
      serializedVersion: 2
      m_TileIndex: 116
      m_TileSpriteIndex: 116
      m_TileMatrixIndex: 0
      m_TileColorIndex: 0
      m_TileObjectToInstantiateIndex: 65535
      dummyAlignment: 0
      m_AllTileFlags: 1073741825
  - first: {x: 2, y: -11, z: 0}
    second:
      serializedVersion: 2
      m_TileIndex: 108
      m_TileSpriteIndex: 107
      m_TileMatrixIndex: 0
      m_TileColorIndex: 0
      m_TileObjectToInstantiateIndex: 65535
      dummyAlignment: 0
      m_AllTileFlags: 1073741825
  - first: {x: 3, y: -11, z: 0}
    second:
      serializedVersion: 2
      m_TileIndex: 107
      m_TileSpriteIndex: 106
      m_TileMatrixIndex: 0
      m_TileColorIndex: 0
      m_TileObjectToInstantiateIndex: 65535
      dummyAlignment: 0
      m_AllTileFlags: 1073741825
  - first: {x: 4, y: -11, z: 0}
    second:
      serializedVersion: 2
      m_TileIndex: 106
      m_TileSpriteIndex: 105
      m_TileMatrixIndex: 0
      m_TileColorIndex: 0
      m_TileObjectToInstantiateIndex: 65535
      dummyAlignment: 0
      m_AllTileFlags: 1073741825
  - first: {x: 5, y: -11, z: 0}
    second:
      serializedVersion: 2
      m_TileIndex: 112
      m_TileSpriteIndex: 112
      m_TileMatrixIndex: 0
      m_TileColorIndex: 0
      m_TileObjectToInstantiateIndex: 65535
      dummyAlignment: 0
      m_AllTileFlags: 1073741825
  - first: {x: 6, y: -11, z: 0}
    second:
      serializedVersion: 2
      m_TileIndex: 111
      m_TileSpriteIndex: 111
      m_TileMatrixIndex: 0
      m_TileColorIndex: 0
      m_TileObjectToInstantiateIndex: 65535
      dummyAlignment: 0
      m_AllTileFlags: 1073741825
  - first: {x: 7, y: -11, z: 0}
    second:
      serializedVersion: 2
      m_TileIndex: 110
      m_TileSpriteIndex: 110
      m_TileMatrixIndex: 0
      m_TileColorIndex: 0
      m_TileObjectToInstantiateIndex: 65535
      dummyAlignment: 0
      m_AllTileFlags: 1073741825
  - first: {x: 8, y: -11, z: 0}
    second:
      serializedVersion: 2
      m_TileIndex: 109
      m_TileSpriteIndex: 109
      m_TileMatrixIndex: 0
      m_TileColorIndex: 0
      m_TileObjectToInstantiateIndex: 65535
      dummyAlignment: 0
      m_AllTileFlags: 1073741825
  - first: {x: 2, y: -10, z: 0}
    second:
      serializedVersion: 2
      m_TileIndex: 101
      m_TileSpriteIndex: 101
      m_TileMatrixIndex: 0
      m_TileColorIndex: 0
      m_TileObjectToInstantiateIndex: 65535
      dummyAlignment: 0
      m_AllTileFlags: 1073741825
  - first: {x: 3, y: -10, z: 0}
    second:
      serializedVersion: 2
      m_TileIndex: 100
      m_TileSpriteIndex: 100
      m_TileMatrixIndex: 0
      m_TileColorIndex: 0
      m_TileObjectToInstantiateIndex: 65535
      dummyAlignment: 0
      m_AllTileFlags: 1073741825
  - first: {x: 4, y: -10, z: 0}
    second:
      serializedVersion: 2
      m_TileIndex: 99
      m_TileSpriteIndex: 99
      m_TileMatrixIndex: 0
      m_TileColorIndex: 0
      m_TileObjectToInstantiateIndex: 65535
      dummyAlignment: 0
      m_AllTileFlags: 1073741825
  - first: {x: 5, y: -10, z: 0}
    second:
      serializedVersion: 2
      m_TileIndex: 105
      m_TileSpriteIndex: 108
      m_TileMatrixIndex: 0
      m_TileColorIndex: 0
      m_TileObjectToInstantiateIndex: 65535
      dummyAlignment: 0
      m_AllTileFlags: 1073741825
  - first: {x: 6, y: -10, z: 0}
    second:
      serializedVersion: 2
      m_TileIndex: 104
      m_TileSpriteIndex: 104
      m_TileMatrixIndex: 0
      m_TileColorIndex: 0
      m_TileObjectToInstantiateIndex: 65535
      dummyAlignment: 0
      m_AllTileFlags: 1073741825
  - first: {x: 7, y: -10, z: 0}
    second:
      serializedVersion: 2
      m_TileIndex: 103
      m_TileSpriteIndex: 103
      m_TileMatrixIndex: 0
      m_TileColorIndex: 0
      m_TileObjectToInstantiateIndex: 65535
      dummyAlignment: 0
      m_AllTileFlags: 1073741825
  - first: {x: 8, y: -10, z: 0}
    second:
      serializedVersion: 2
      m_TileIndex: 102
      m_TileSpriteIndex: 102
      m_TileMatrixIndex: 0
      m_TileColorIndex: 0
      m_TileObjectToInstantiateIndex: 65535
      dummyAlignment: 0
      m_AllTileFlags: 1073741825
  - first: {x: 2, y: -9, z: 0}
    second:
      serializedVersion: 2
      m_TileIndex: 98
      m_TileSpriteIndex: 98
      m_TileMatrixIndex: 0
      m_TileColorIndex: 0
      m_TileObjectToInstantiateIndex: 65535
      dummyAlignment: 0
      m_AllTileFlags: 1073741825
  - first: {x: 3, y: -9, z: 0}
    second:
      serializedVersion: 2
      m_TileIndex: 97
      m_TileSpriteIndex: 97
      m_TileMatrixIndex: 0
      m_TileColorIndex: 0
      m_TileObjectToInstantiateIndex: 65535
      dummyAlignment: 0
      m_AllTileFlags: 1073741825
  - first: {x: 4, y: -9, z: 0}
    second:
      serializedVersion: 2
      m_TileIndex: 96
      m_TileSpriteIndex: 96
      m_TileMatrixIndex: 0
      m_TileColorIndex: 0
      m_TileObjectToInstantiateIndex: 65535
      dummyAlignment: 0
      m_AllTileFlags: 1073741825
  - first: {x: 5, y: -9, z: 0}
    second:
      serializedVersion: 2
      m_TileIndex: 95
      m_TileSpriteIndex: 95
      m_TileMatrixIndex: 0
      m_TileColorIndex: 0
      m_TileObjectToInstantiateIndex: 65535
      dummyAlignment: 0
      m_AllTileFlags: 1073741825
  - first: {x: 6, y: -9, z: 0}
    second:
      serializedVersion: 2
      m_TileIndex: 94
      m_TileSpriteIndex: 94
      m_TileMatrixIndex: 0
      m_TileColorIndex: 0
      m_TileObjectToInstantiateIndex: 65535
      dummyAlignment: 0
      m_AllTileFlags: 1073741825
  - first: {x: 7, y: -9, z: 0}
    second:
      serializedVersion: 2
      m_TileIndex: 93
      m_TileSpriteIndex: 93
      m_TileMatrixIndex: 0
      m_TileColorIndex: 0
      m_TileObjectToInstantiateIndex: 65535
      dummyAlignment: 0
      m_AllTileFlags: 1073741825
  - first: {x: 8, y: -9, z: 0}
    second:
      serializedVersion: 2
      m_TileIndex: 92
      m_TileSpriteIndex: 92
      m_TileMatrixIndex: 0
      m_TileColorIndex: 0
      m_TileObjectToInstantiateIndex: 65535
      dummyAlignment: 0
      m_AllTileFlags: 1073741825
  - first: {x: 2, y: -8, z: 0}
    second:
      serializedVersion: 2
      m_TileIndex: 91
      m_TileSpriteIndex: 91
      m_TileMatrixIndex: 0
      m_TileColorIndex: 0
      m_TileObjectToInstantiateIndex: 65535
      dummyAlignment: 0
      m_AllTileFlags: 1073741825
  - first: {x: 3, y: -8, z: 0}
    second:
      serializedVersion: 2
      m_TileIndex: 90
      m_TileSpriteIndex: 90
      m_TileMatrixIndex: 0
      m_TileColorIndex: 0
      m_TileObjectToInstantiateIndex: 65535
      dummyAlignment: 0
      m_AllTileFlags: 1073741825
  - first: {x: 4, y: -8, z: 0}
    second:
      serializedVersion: 2
      m_TileIndex: 89
      m_TileSpriteIndex: 89
      m_TileMatrixIndex: 0
      m_TileColorIndex: 0
      m_TileObjectToInstantiateIndex: 65535
      dummyAlignment: 0
      m_AllTileFlags: 1073741825
  - first: {x: 5, y: -8, z: 0}
    second:
      serializedVersion: 2
      m_TileIndex: 88
      m_TileSpriteIndex: 88
      m_TileMatrixIndex: 0
      m_TileColorIndex: 0
      m_TileObjectToInstantiateIndex: 65535
      dummyAlignment: 0
      m_AllTileFlags: 1073741825
  - first: {x: 6, y: -8, z: 0}
    second:
      serializedVersion: 2
      m_TileIndex: 87
      m_TileSpriteIndex: 87
      m_TileMatrixIndex: 0
      m_TileColorIndex: 0
      m_TileObjectToInstantiateIndex: 65535
      dummyAlignment: 0
      m_AllTileFlags: 1073741825
  - first: {x: 7, y: -8, z: 0}
    second:
      serializedVersion: 2
      m_TileIndex: 86
      m_TileSpriteIndex: 86
      m_TileMatrixIndex: 0
      m_TileColorIndex: 0
      m_TileObjectToInstantiateIndex: 65535
      dummyAlignment: 0
      m_AllTileFlags: 1073741825
  - first: {x: 8, y: -8, z: 0}
    second:
      serializedVersion: 2
      m_TileIndex: 85
      m_TileSpriteIndex: 85
      m_TileMatrixIndex: 0
      m_TileColorIndex: 0
      m_TileObjectToInstantiateIndex: 65535
      dummyAlignment: 0
      m_AllTileFlags: 1073741825
  - first: {x: 2, y: -7, z: 0}
    second:
      serializedVersion: 2
      m_TileIndex: 81
      m_TileSpriteIndex: 81
      m_TileMatrixIndex: 0
      m_TileColorIndex: 0
      m_TileObjectToInstantiateIndex: 65535
      dummyAlignment: 0
      m_AllTileFlags: 1073741825
  - first: {x: 3, y: -7, z: 0}
    second:
      serializedVersion: 2
      m_TileIndex: 80
      m_TileSpriteIndex: 80
      m_TileMatrixIndex: 0
      m_TileColorIndex: 0
      m_TileObjectToInstantiateIndex: 65535
      dummyAlignment: 0
      m_AllTileFlags: 1073741825
  - first: {x: 4, y: -7, z: 0}
    second:
      serializedVersion: 2
      m_TileIndex: 79
      m_TileSpriteIndex: 84
      m_TileMatrixIndex: 0
      m_TileColorIndex: 0
      m_TileObjectToInstantiateIndex: 65535
      dummyAlignment: 0
      m_AllTileFlags: 1073741825
  - first: {x: 5, y: -7, z: 0}
    second:
      serializedVersion: 2
      m_TileIndex: 78
      m_TileSpriteIndex: 83
      m_TileMatrixIndex: 0
      m_TileColorIndex: 0
      m_TileObjectToInstantiateIndex: 65535
      dummyAlignment: 0
      m_AllTileFlags: 1073741825
  - first: {x: 6, y: -7, z: 0}
    second:
      serializedVersion: 2
      m_TileIndex: 84
      m_TileSpriteIndex: 82
      m_TileMatrixIndex: 0
      m_TileColorIndex: 0
      m_TileObjectToInstantiateIndex: 65535
      dummyAlignment: 0
      m_AllTileFlags: 1073741825
  - first: {x: 7, y: -7, z: 0}
    second:
      serializedVersion: 2
      m_TileIndex: 83
      m_TileSpriteIndex: 79
      m_TileMatrixIndex: 0
      m_TileColorIndex: 0
      m_TileObjectToInstantiateIndex: 65535
      dummyAlignment: 0
      m_AllTileFlags: 1073741825
  - first: {x: 8, y: -7, z: 0}
    second:
      serializedVersion: 2
      m_TileIndex: 82
      m_TileSpriteIndex: 78
      m_TileMatrixIndex: 0
      m_TileColorIndex: 0
      m_TileObjectToInstantiateIndex: 65535
      dummyAlignment: 0
      m_AllTileFlags: 1073741825
  - first: {x: 2, y: -6, z: 0}
    second:
      serializedVersion: 2
      m_TileIndex: 71
      m_TileSpriteIndex: 69
      m_TileMatrixIndex: 0
      m_TileColorIndex: 0
      m_TileObjectToInstantiateIndex: 65535
      dummyAlignment: 0
      m_AllTileFlags: 1073741825
  - first: {x: 3, y: -6, z: 0}
    second:
      serializedVersion: 2
      m_TileIndex: 77
      m_TileSpriteIndex: 77
      m_TileMatrixIndex: 0
      m_TileColorIndex: 0
      m_TileObjectToInstantiateIndex: 65535
      dummyAlignment: 0
      m_AllTileFlags: 1073741825
  - first: {x: 4, y: -6, z: 0}
    second:
      serializedVersion: 2
      m_TileIndex: 76
      m_TileSpriteIndex: 76
      m_TileMatrixIndex: 0
      m_TileColorIndex: 0
      m_TileObjectToInstantiateIndex: 65535
      dummyAlignment: 0
      m_AllTileFlags: 1073741825
  - first: {x: 5, y: -6, z: 0}
    second:
      serializedVersion: 2
      m_TileIndex: 75
      m_TileSpriteIndex: 75
      m_TileMatrixIndex: 0
      m_TileColorIndex: 0
      m_TileObjectToInstantiateIndex: 65535
      dummyAlignment: 0
      m_AllTileFlags: 1073741825
  - first: {x: 6, y: -6, z: 0}
    second:
      serializedVersion: 2
      m_TileIndex: 74
      m_TileSpriteIndex: 74
      m_TileMatrixIndex: 0
      m_TileColorIndex: 0
      m_TileObjectToInstantiateIndex: 65535
      dummyAlignment: 0
      m_AllTileFlags: 1073741825
  - first: {x: 7, y: -6, z: 0}
    second:
      serializedVersion: 2
      m_TileIndex: 73
      m_TileSpriteIndex: 73
      m_TileMatrixIndex: 0
      m_TileColorIndex: 0
      m_TileObjectToInstantiateIndex: 65535
      dummyAlignment: 0
      m_AllTileFlags: 1073741825
  - first: {x: 8, y: -6, z: 0}
    second:
      serializedVersion: 2
      m_TileIndex: 72
      m_TileSpriteIndex: 72
      m_TileMatrixIndex: 0
      m_TileColorIndex: 0
      m_TileObjectToInstantiateIndex: 65535
      dummyAlignment: 0
      m_AllTileFlags: 1073741825
  - first: {x: 2, y: -5, z: 0}
    second:
      serializedVersion: 2
      m_TileIndex: 70
      m_TileSpriteIndex: 71
      m_TileMatrixIndex: 0
      m_TileColorIndex: 0
      m_TileObjectToInstantiateIndex: 65535
      dummyAlignment: 0
      m_AllTileFlags: 1073741825
  - first: {x: 3, y: -5, z: 0}
    second:
      serializedVersion: 2
      m_TileIndex: 69
      m_TileSpriteIndex: 70
      m_TileMatrixIndex: 0
      m_TileColorIndex: 0
      m_TileObjectToInstantiateIndex: 65535
      dummyAlignment: 0
      m_AllTileFlags: 1073741825
  - first: {x: 4, y: -5, z: 0}
    second:
      serializedVersion: 2
      m_TileIndex: 68
      m_TileSpriteIndex: 68
      m_TileMatrixIndex: 0
      m_TileColorIndex: 0
      m_TileObjectToInstantiateIndex: 65535
      dummyAlignment: 0
      m_AllTileFlags: 1073741825
  - first: {x: 5, y: -5, z: 0}
    second:
      serializedVersion: 2
      m_TileIndex: 67
      m_TileSpriteIndex: 67
      m_TileMatrixIndex: 0
      m_TileColorIndex: 0
      m_TileObjectToInstantiateIndex: 65535
      dummyAlignment: 0
      m_AllTileFlags: 1073741825
  - first: {x: 6, y: -5, z: 0}
    second:
      serializedVersion: 2
      m_TileIndex: 66
      m_TileSpriteIndex: 66
      m_TileMatrixIndex: 0
      m_TileColorIndex: 0
      m_TileObjectToInstantiateIndex: 65535
      dummyAlignment: 0
      m_AllTileFlags: 1073741825
  - first: {x: 7, y: -5, z: 0}
    second:
      serializedVersion: 2
      m_TileIndex: 65
      m_TileSpriteIndex: 65
      m_TileMatrixIndex: 0
      m_TileColorIndex: 0
      m_TileObjectToInstantiateIndex: 65535
      dummyAlignment: 0
      m_AllTileFlags: 1073741825
  - first: {x: 8, y: -5, z: 0}
    second:
      serializedVersion: 2
      m_TileIndex: 64
      m_TileSpriteIndex: 64
      m_TileMatrixIndex: 0
      m_TileColorIndex: 0
      m_TileObjectToInstantiateIndex: 65535
      dummyAlignment: 0
      m_AllTileFlags: 1073741825
  - first: {x: -4, y: -4, z: 0}
    second:
      serializedVersion: 2
      m_TileIndex: 19
      m_TileSpriteIndex: 19
      m_TileMatrixIndex: 0
      m_TileColorIndex: 0
      m_TileObjectToInstantiateIndex: 65535
      dummyAlignment: 0
      m_AllTileFlags: 1073741825
  - first: {x: -3, y: -4, z: 0}
    second:
      serializedVersion: 2
      m_TileIndex: 21
      m_TileSpriteIndex: 21
      m_TileMatrixIndex: 0
      m_TileColorIndex: 0
      m_TileObjectToInstantiateIndex: 65535
      dummyAlignment: 0
      m_AllTileFlags: 1073741825
  - first: {x: -2, y: -4, z: 0}
    second:
      serializedVersion: 2
      m_TileIndex: 20
      m_TileSpriteIndex: 20
      m_TileMatrixIndex: 0
      m_TileColorIndex: 0
      m_TileObjectToInstantiateIndex: 65535
      dummyAlignment: 0
      m_AllTileFlags: 1073741825
  - first: {x: 2, y: -4, z: 0}
    second:
      serializedVersion: 2
      m_TileIndex: 61
      m_TileSpriteIndex: 61
      m_TileMatrixIndex: 0
      m_TileColorIndex: 0
      m_TileObjectToInstantiateIndex: 65535
      dummyAlignment: 0
      m_AllTileFlags: 1073741825
  - first: {x: 3, y: -4, z: 0}
    second:
      serializedVersion: 2
      m_TileIndex: 60
      m_TileSpriteIndex: 60
      m_TileMatrixIndex: 0
      m_TileColorIndex: 0
      m_TileObjectToInstantiateIndex: 65535
      dummyAlignment: 0
      m_AllTileFlags: 1073741825
  - first: {x: 4, y: -4, z: 0}
    second:
      serializedVersion: 2
      m_TileIndex: 59
      m_TileSpriteIndex: 59
      m_TileMatrixIndex: 0
      m_TileColorIndex: 0
      m_TileObjectToInstantiateIndex: 65535
      dummyAlignment: 0
      m_AllTileFlags: 1073741825
  - first: {x: 5, y: -4, z: 0}
    second:
      serializedVersion: 2
      m_TileIndex: 58
      m_TileSpriteIndex: 58
      m_TileMatrixIndex: 0
      m_TileColorIndex: 0
      m_TileObjectToInstantiateIndex: 65535
      dummyAlignment: 0
      m_AllTileFlags: 1073741825
  - first: {x: 6, y: -4, z: 0}
    second:
      serializedVersion: 2
      m_TileIndex: 57
      m_TileSpriteIndex: 57
      m_TileMatrixIndex: 0
      m_TileColorIndex: 0
      m_TileObjectToInstantiateIndex: 65535
      dummyAlignment: 0
      m_AllTileFlags: 1073741825
  - first: {x: 7, y: -4, z: 0}
    second:
      serializedVersion: 2
      m_TileIndex: 63
      m_TileSpriteIndex: 63
      m_TileMatrixIndex: 0
      m_TileColorIndex: 0
      m_TileObjectToInstantiateIndex: 65535
      dummyAlignment: 0
      m_AllTileFlags: 1073741825
  - first: {x: 8, y: -4, z: 0}
    second:
      serializedVersion: 2
      m_TileIndex: 62
      m_TileSpriteIndex: 62
      m_TileMatrixIndex: 0
      m_TileColorIndex: 0
      m_TileObjectToInstantiateIndex: 65535
      dummyAlignment: 0
      m_AllTileFlags: 1073741825
  - first: {x: -4, y: -3, z: 0}
    second:
      serializedVersion: 2
      m_TileIndex: 16
      m_TileSpriteIndex: 16
      m_TileMatrixIndex: 0
      m_TileColorIndex: 0
      m_TileObjectToInstantiateIndex: 65535
      dummyAlignment: 0
      m_AllTileFlags: 1073741825
  - first: {x: -3, y: -3, z: 0}
    second:
      serializedVersion: 2
      m_TileIndex: 17
      m_TileSpriteIndex: 17
      m_TileMatrixIndex: 0
      m_TileColorIndex: 0
      m_TileObjectToInstantiateIndex: 65535
      dummyAlignment: 0
      m_AllTileFlags: 1073741825
  - first: {x: -2, y: -3, z: 0}
    second:
      serializedVersion: 2
      m_TileIndex: 18
      m_TileSpriteIndex: 18
      m_TileMatrixIndex: 0
      m_TileColorIndex: 0
      m_TileObjectToInstantiateIndex: 65535
      dummyAlignment: 0
      m_AllTileFlags: 1073741825
  - first: {x: 2, y: -3, z: 0}
    second:
      serializedVersion: 2
      m_TileIndex: 51
      m_TileSpriteIndex: 51
      m_TileMatrixIndex: 0
      m_TileColorIndex: 0
      m_TileObjectToInstantiateIndex: 65535
      dummyAlignment: 0
      m_AllTileFlags: 1073741825
  - first: {x: 3, y: -3, z: 0}
    second:
      serializedVersion: 2
      m_TileIndex: 50
      m_TileSpriteIndex: 50
      m_TileMatrixIndex: 0
      m_TileColorIndex: 0
      m_TileObjectToInstantiateIndex: 65535
      dummyAlignment: 0
      m_AllTileFlags: 1073741825
  - first: {x: 4, y: -3, z: 0}
    second:
      serializedVersion: 2
      m_TileIndex: 55
      m_TileSpriteIndex: 55
      m_TileMatrixIndex: 0
      m_TileColorIndex: 0
      m_TileObjectToInstantiateIndex: 65535
      dummyAlignment: 0
      m_AllTileFlags: 1073741825
  - first: {x: 5, y: -3, z: 0}
    second:
      serializedVersion: 2
      m_TileIndex: 54
      m_TileSpriteIndex: 54
      m_TileMatrixIndex: 0
      m_TileColorIndex: 0
      m_TileObjectToInstantiateIndex: 65535
      dummyAlignment: 0
      m_AllTileFlags: 1073741825
  - first: {x: 6, y: -3, z: 0}
    second:
      serializedVersion: 2
      m_TileIndex: 53
      m_TileSpriteIndex: 53
      m_TileMatrixIndex: 0
      m_TileColorIndex: 0
      m_TileObjectToInstantiateIndex: 65535
      dummyAlignment: 0
      m_AllTileFlags: 1073741825
  - first: {x: 7, y: -3, z: 0}
    second:
      serializedVersion: 2
      m_TileIndex: 52
      m_TileSpriteIndex: 52
      m_TileMatrixIndex: 0
      m_TileColorIndex: 0
      m_TileObjectToInstantiateIndex: 65535
      dummyAlignment: 0
      m_AllTileFlags: 1073741825
  - first: {x: 8, y: -3, z: 0}
    second:
      serializedVersion: 2
      m_TileIndex: 56
      m_TileSpriteIndex: 56
      m_TileMatrixIndex: 0
      m_TileColorIndex: 0
      m_TileObjectToInstantiateIndex: 65535
      dummyAlignment: 0
      m_AllTileFlags: 1073741825
  - first: {x: -5, y: -2, z: 0}
    second:
      serializedVersion: 2
      m_TileIndex: 14
      m_TileSpriteIndex: 14
      m_TileMatrixIndex: 0
      m_TileColorIndex: 0
      m_TileObjectToInstantiateIndex: 65535
      dummyAlignment: 0
      m_AllTileFlags: 1073741825
  - first: {x: -4, y: -2, z: 0}
    second:
      serializedVersion: 2
      m_TileIndex: 13
      m_TileSpriteIndex: 13
      m_TileMatrixIndex: 0
      m_TileColorIndex: 0
      m_TileObjectToInstantiateIndex: 65535
      dummyAlignment: 0
      m_AllTileFlags: 1073741825
  - first: {x: -3, y: -2, z: 0}
    second:
      serializedVersion: 2
      m_TileIndex: 12
      m_TileSpriteIndex: 15
      m_TileMatrixIndex: 0
      m_TileColorIndex: 0
      m_TileObjectToInstantiateIndex: 65535
      dummyAlignment: 0
      m_AllTileFlags: 1073741825
  - first: {x: -2, y: -2, z: 0}
    second:
      serializedVersion: 2
      m_TileIndex: 15
      m_TileSpriteIndex: 12
      m_TileMatrixIndex: 0
      m_TileColorIndex: 0
      m_TileObjectToInstantiateIndex: 65535
      dummyAlignment: 0
      m_AllTileFlags: 1073741825
  - first: {x: 2, y: -2, z: 0}
    second:
      serializedVersion: 2
      m_TileIndex: 43
      m_TileSpriteIndex: 43
      m_TileMatrixIndex: 0
      m_TileColorIndex: 0
      m_TileObjectToInstantiateIndex: 65535
      dummyAlignment: 0
      m_AllTileFlags: 1073741825
  - first: {x: 3, y: -2, z: 0}
    second:
      serializedVersion: 2
      m_TileIndex: 44
      m_TileSpriteIndex: 44
      m_TileMatrixIndex: 0
      m_TileColorIndex: 0
      m_TileObjectToInstantiateIndex: 65535
      dummyAlignment: 0
      m_AllTileFlags: 1073741825
  - first: {x: 4, y: -2, z: 0}
    second:
      serializedVersion: 2
      m_TileIndex: 45
      m_TileSpriteIndex: 45
      m_TileMatrixIndex: 0
      m_TileColorIndex: 0
      m_TileObjectToInstantiateIndex: 65535
      dummyAlignment: 0
      m_AllTileFlags: 1073741825
  - first: {x: 5, y: -2, z: 0}
    second:
      serializedVersion: 2
      m_TileIndex: 46
      m_TileSpriteIndex: 46
      m_TileMatrixIndex: 0
      m_TileColorIndex: 0
      m_TileObjectToInstantiateIndex: 65535
      dummyAlignment: 0
      m_AllTileFlags: 1073741825
  - first: {x: 6, y: -2, z: 0}
    second:
      serializedVersion: 2
      m_TileIndex: 47
      m_TileSpriteIndex: 47
      m_TileMatrixIndex: 0
      m_TileColorIndex: 0
      m_TileObjectToInstantiateIndex: 65535
      dummyAlignment: 0
      m_AllTileFlags: 1073741825
  - first: {x: 7, y: -2, z: 0}
    second:
      serializedVersion: 2
      m_TileIndex: 48
      m_TileSpriteIndex: 48
      m_TileMatrixIndex: 0
      m_TileColorIndex: 0
      m_TileObjectToInstantiateIndex: 65535
      dummyAlignment: 0
      m_AllTileFlags: 1073741825
  - first: {x: 8, y: -2, z: 0}
    second:
      serializedVersion: 2
      m_TileIndex: 49
      m_TileSpriteIndex: 49
      m_TileMatrixIndex: 0
      m_TileColorIndex: 0
      m_TileObjectToInstantiateIndex: 65535
      dummyAlignment: 0
      m_AllTileFlags: 1073741825
  - first: {x: -5, y: -1, z: 0}
    second:
      serializedVersion: 2
      m_TileIndex: 7
      m_TileSpriteIndex: 6
      m_TileMatrixIndex: 0
      m_TileColorIndex: 0
      m_TileObjectToInstantiateIndex: 65535
      dummyAlignment: 0
      m_AllTileFlags: 1073741825
  - first: {x: -4, y: -1, z: 0}
    second:
      serializedVersion: 2
      m_TileIndex: 9
      m_TileSpriteIndex: 9
      m_TileMatrixIndex: 0
      m_TileColorIndex: 0
      m_TileObjectToInstantiateIndex: 65535
      dummyAlignment: 0
      m_AllTileFlags: 1073741825
  - first: {x: -3, y: -1, z: 0}
    second:
      serializedVersion: 2
      m_TileIndex: 8
      m_TileSpriteIndex: 8
      m_TileMatrixIndex: 0
      m_TileColorIndex: 0
      m_TileObjectToInstantiateIndex: 65535
      dummyAlignment: 0
      m_AllTileFlags: 1073741825
  - first: {x: -2, y: -1, z: 0}
    second:
      serializedVersion: 2
      m_TileIndex: 0
      m_TileSpriteIndex: 11
      m_TileMatrixIndex: 0
      m_TileColorIndex: 0
      m_TileObjectToInstantiateIndex: 65535
      dummyAlignment: 0
      m_AllTileFlags: 1073741825
  - first: {x: -1, y: -1, z: 0}
    second:
      serializedVersion: 2
      m_TileIndex: 11
      m_TileSpriteIndex: 10
      m_TileMatrixIndex: 0
      m_TileColorIndex: 0
      m_TileObjectToInstantiateIndex: 65535
      dummyAlignment: 0
      m_AllTileFlags: 1073741825
  - first: {x: 0, y: -1, z: 0}
    second:
      serializedVersion: 2
      m_TileIndex: 10
      m_TileSpriteIndex: 7
      m_TileMatrixIndex: 0
      m_TileColorIndex: 0
      m_TileObjectToInstantiateIndex: 65535
      dummyAlignment: 0
      m_AllTileFlags: 1073741825
  - first: {x: 2, y: -1, z: 0}
    second:
      serializedVersion: 2
      m_TileIndex: 37
      m_TileSpriteIndex: 36
      m_TileMatrixIndex: 0
      m_TileColorIndex: 0
      m_TileObjectToInstantiateIndex: 65535
      dummyAlignment: 0
      m_AllTileFlags: 1073741825
  - first: {x: 3, y: -1, z: 0}
    second:
      serializedVersion: 2
      m_TileIndex: 36
      m_TileSpriteIndex: 35
      m_TileMatrixIndex: 0
      m_TileColorIndex: 0
      m_TileObjectToInstantiateIndex: 65535
      dummyAlignment: 0
      m_AllTileFlags: 1073741825
  - first: {x: 4, y: -1, z: 0}
    second:
      serializedVersion: 2
      m_TileIndex: 35
      m_TileSpriteIndex: 34
      m_TileMatrixIndex: 0
      m_TileColorIndex: 0
      m_TileObjectToInstantiateIndex: 65535
      dummyAlignment: 0
      m_AllTileFlags: 1073741825
  - first: {x: 5, y: -1, z: 0}
    second:
      serializedVersion: 2
      m_TileIndex: 34
      m_TileSpriteIndex: 37
      m_TileMatrixIndex: 0
      m_TileColorIndex: 0
      m_TileObjectToInstantiateIndex: 65535
      dummyAlignment: 0
      m_AllTileFlags: 1073741825
  - first: {x: 6, y: -1, z: 0}
    second:
      serializedVersion: 2
      m_TileIndex: 33
      m_TileSpriteIndex: 33
      m_TileMatrixIndex: 0
      m_TileColorIndex: 0
      m_TileObjectToInstantiateIndex: 65535
      dummyAlignment: 0
      m_AllTileFlags: 1073741825
  - first: {x: 7, y: -1, z: 0}
    second:
      serializedVersion: 2
      m_TileIndex: 32
      m_TileSpriteIndex: 32
      m_TileMatrixIndex: 0
      m_TileColorIndex: 0
      m_TileObjectToInstantiateIndex: 65535
      dummyAlignment: 0
      m_AllTileFlags: 1073741825
  - first: {x: 8, y: -1, z: 0}
    second:
      serializedVersion: 2
      m_TileIndex: 42
      m_TileSpriteIndex: 42
      m_TileMatrixIndex: 0
      m_TileColorIndex: 0
      m_TileObjectToInstantiateIndex: 65535
      dummyAlignment: 0
      m_AllTileFlags: 1073741825
  - first: {x: -5, y: 0, z: 0}
    second:
      serializedVersion: 2
      m_TileIndex: 1
      m_TileSpriteIndex: 0
      m_TileMatrixIndex: 0
      m_TileColorIndex: 0
      m_TileObjectToInstantiateIndex: 65535
      dummyAlignment: 0
      m_AllTileFlags: 1073741825
  - first: {x: -4, y: 0, z: 0}
    second:
      serializedVersion: 2
      m_TileIndex: 2
      m_TileSpriteIndex: 1
      m_TileMatrixIndex: 0
      m_TileColorIndex: 0
      m_TileObjectToInstantiateIndex: 65535
      dummyAlignment: 0
      m_AllTileFlags: 1073741825
  - first: {x: -3, y: 0, z: 0}
    second:
      serializedVersion: 2
      m_TileIndex: 3
      m_TileSpriteIndex: 2
      m_TileMatrixIndex: 0
      m_TileColorIndex: 0
      m_TileObjectToInstantiateIndex: 65535
      dummyAlignment: 0
      m_AllTileFlags: 1073741825
  - first: {x: -2, y: 0, z: 0}
    second:
      serializedVersion: 2
      m_TileIndex: 4
      m_TileSpriteIndex: 5
      m_TileMatrixIndex: 0
      m_TileColorIndex: 0
      m_TileObjectToInstantiateIndex: 65535
      dummyAlignment: 0
      m_AllTileFlags: 1073741825
  - first: {x: -1, y: 0, z: 0}
    second:
      serializedVersion: 2
      m_TileIndex: 5
      m_TileSpriteIndex: 4
      m_TileMatrixIndex: 0
      m_TileColorIndex: 0
      m_TileObjectToInstantiateIndex: 65535
      dummyAlignment: 0
      m_AllTileFlags: 1073741825
  - first: {x: 0, y: 0, z: 0}
    second:
      serializedVersion: 2
      m_TileIndex: 6
      m_TileSpriteIndex: 3
      m_TileMatrixIndex: 0
      m_TileColorIndex: 0
      m_TileObjectToInstantiateIndex: 65535
      dummyAlignment: 0
      m_AllTileFlags: 1073741825
  - first: {x: 2, y: 0, z: 0}
    second:
      serializedVersion: 2
      m_TileIndex: 24
      m_TileSpriteIndex: 24
      m_TileMatrixIndex: 0
      m_TileColorIndex: 0
      m_TileObjectToInstantiateIndex: 65535
      dummyAlignment: 0
      m_AllTileFlags: 1073741825
  - first: {x: 3, y: 0, z: 0}
    second:
      serializedVersion: 2
      m_TileIndex: 23
      m_TileSpriteIndex: 23
      m_TileMatrixIndex: 0
      m_TileColorIndex: 0
      m_TileObjectToInstantiateIndex: 65535
      dummyAlignment: 0
      m_AllTileFlags: 1073741825
  - first: {x: 4, y: 0, z: 0}
    second:
      serializedVersion: 2
      m_TileIndex: 22
      m_TileSpriteIndex: 22
      m_TileMatrixIndex: 0
      m_TileColorIndex: 0
      m_TileObjectToInstantiateIndex: 65535
      dummyAlignment: 0
      m_AllTileFlags: 1073741825
  - first: {x: 5, y: 0, z: 0}
    second:
      serializedVersion: 2
      m_TileIndex: 41
      m_TileSpriteIndex: 41
      m_TileMatrixIndex: 0
      m_TileColorIndex: 0
      m_TileObjectToInstantiateIndex: 65535
      dummyAlignment: 0
      m_AllTileFlags: 1073741825
  - first: {x: 6, y: 0, z: 0}
    second:
      serializedVersion: 2
      m_TileIndex: 40
      m_TileSpriteIndex: 40
      m_TileMatrixIndex: 0
      m_TileColorIndex: 0
      m_TileObjectToInstantiateIndex: 65535
      dummyAlignment: 0
      m_AllTileFlags: 1073741825
  - first: {x: 7, y: 0, z: 0}
    second:
      serializedVersion: 2
      m_TileIndex: 39
      m_TileSpriteIndex: 39
      m_TileMatrixIndex: 0
      m_TileColorIndex: 0
      m_TileObjectToInstantiateIndex: 65535
      dummyAlignment: 0
      m_AllTileFlags: 1073741825
  - first: {x: 8, y: 0, z: 0}
    second:
      serializedVersion: 2
      m_TileIndex: 38
      m_TileSpriteIndex: 38
      m_TileMatrixIndex: 0
      m_TileColorIndex: 0
      m_TileObjectToInstantiateIndex: 65535
      dummyAlignment: 0
      m_AllTileFlags: 1073741825
  - first: {x: 2, y: 1, z: 0}
    second:
      serializedVersion: 2
      m_TileIndex: 31
      m_TileSpriteIndex: 31
      m_TileMatrixIndex: 0
      m_TileColorIndex: 0
      m_TileObjectToInstantiateIndex: 65535
      dummyAlignment: 0
      m_AllTileFlags: 1073741825
  - first: {x: 3, y: 1, z: 0}
    second:
      serializedVersion: 2
      m_TileIndex: 30
      m_TileSpriteIndex: 30
      m_TileMatrixIndex: 0
      m_TileColorIndex: 0
      m_TileObjectToInstantiateIndex: 65535
      dummyAlignment: 0
      m_AllTileFlags: 1073741825
  - first: {x: 4, y: 1, z: 0}
    second:
      serializedVersion: 2
      m_TileIndex: 29
      m_TileSpriteIndex: 29
      m_TileMatrixIndex: 0
      m_TileColorIndex: 0
      m_TileObjectToInstantiateIndex: 65535
      dummyAlignment: 0
      m_AllTileFlags: 1073741825
  - first: {x: 5, y: 1, z: 0}
    second:
      serializedVersion: 2
      m_TileIndex: 28
      m_TileSpriteIndex: 28
      m_TileMatrixIndex: 0
      m_TileColorIndex: 0
      m_TileObjectToInstantiateIndex: 65535
      dummyAlignment: 0
      m_AllTileFlags: 1073741825
  - first: {x: 6, y: 1, z: 0}
    second:
      serializedVersion: 2
      m_TileIndex: 27
      m_TileSpriteIndex: 27
      m_TileMatrixIndex: 0
      m_TileColorIndex: 0
      m_TileObjectToInstantiateIndex: 65535
      dummyAlignment: 0
      m_AllTileFlags: 1073741825
  - first: {x: 7, y: 1, z: 0}
    second:
      serializedVersion: 2
      m_TileIndex: 26
      m_TileSpriteIndex: 26
      m_TileMatrixIndex: 0
      m_TileColorIndex: 0
      m_TileObjectToInstantiateIndex: 65535
      dummyAlignment: 0
      m_AllTileFlags: 1073741825
  - first: {x: 8, y: 1, z: 0}
    second:
      serializedVersion: 2
      m_TileIndex: 25
      m_TileSpriteIndex: 25
      m_TileMatrixIndex: 0
      m_TileColorIndex: 0
      m_TileObjectToInstantiateIndex: 65535
      dummyAlignment: 0
      m_AllTileFlags: 1073741825
  m_AnimatedTiles: {}
  m_TileAssetArray:
  - m_RefCount: 1
    m_Data: {fileID: 11400000, guid: a28c7d1798040404abf0cddf6a8ef8ce, type: 2}
  - m_RefCount: 1
    m_Data: {fileID: 11400000, guid: 28e23d82860f89e42bbf59d0c261807d, type: 2}
  - m_RefCount: 1
    m_Data: {fileID: 11400000, guid: a107b64404b5ce74db6a944385eedabe, type: 2}
  - m_RefCount: 1
    m_Data: {fileID: 11400000, guid: 45ed41537647e8d45b712e4efc1df7fd, type: 2}
  - m_RefCount: 1
    m_Data: {fileID: 11400000, guid: c42b3c233cbe35c44bc7e5d4d7d60db3, type: 2}
  - m_RefCount: 1
    m_Data: {fileID: 11400000, guid: d3879670436383540ae6d9219e8be227, type: 2}
  - m_RefCount: 1
    m_Data: {fileID: 11400000, guid: 778abf8840ab22b4b9f4c9d100f9cf3b, type: 2}
  - m_RefCount: 1
    m_Data: {fileID: 11400000, guid: 06bd1d0575ae2464492b0e0bf44fba44, type: 2}
  - m_RefCount: 1
    m_Data: {fileID: 11400000, guid: 742ce3582604ba84896a6050127fe9e8, type: 2}
  - m_RefCount: 1
    m_Data: {fileID: 11400000, guid: 1efb7f7db1f203a4d9733f236e46e94e, type: 2}
  - m_RefCount: 1
    m_Data: {fileID: 11400000, guid: fb61a913b8daa8240b60941e759d33b1, type: 2}
  - m_RefCount: 1
    m_Data: {fileID: 11400000, guid: 810e36db958fc8c40910e23130290348, type: 2}
  - m_RefCount: 1
    m_Data: {fileID: 11400000, guid: 9f8617d2ffc872f4cb7b7681c64d93f5, type: 2}
  - m_RefCount: 1
    m_Data: {fileID: 11400000, guid: 7f5d5d01838961943ad24f577366d01c, type: 2}
  - m_RefCount: 1
    m_Data: {fileID: 11400000, guid: 53934097868e9614ca33fd5e8749c8b0, type: 2}
  - m_RefCount: 1
    m_Data: {fileID: 11400000, guid: 2d167d5cdaca137418d7988e463c9a11, type: 2}
  - m_RefCount: 1
    m_Data: {fileID: 11400000, guid: 7b47ec001c1e0ba4d8f00e0f5d0f1ac3, type: 2}
  - m_RefCount: 1
    m_Data: {fileID: 11400000, guid: 5dfd98e2521dfc1468d234dc16f24f60, type: 2}
  - m_RefCount: 1
    m_Data: {fileID: 11400000, guid: 5318e28c401330945aafc699288b4f37, type: 2}
  - m_RefCount: 1
    m_Data: {fileID: 11400000, guid: e63e029a33312264f941e29563cb582a, type: 2}
  - m_RefCount: 1
    m_Data: {fileID: 11400000, guid: 5a5bcd6190ccb584ebfa25c3d4540831, type: 2}
  - m_RefCount: 1
    m_Data: {fileID: 11400000, guid: 1a21cfe1937016d4b82e05d2be3286d5, type: 2}
  - m_RefCount: 1
    m_Data: {fileID: 11400000, guid: 7b0b0c7db209ba34f986d1022538b4e6, type: 2}
  - m_RefCount: 1
    m_Data: {fileID: 11400000, guid: 0a72d1d6cf9ca3c4b9bf3bf658bafd85, type: 2}
  - m_RefCount: 1
    m_Data: {fileID: 11400000, guid: 30cbd66d6d7de9949b54d9b277c44704, type: 2}
  - m_RefCount: 1
    m_Data: {fileID: 11400000, guid: ce28a08811044ad48bbbe34e9ea1dbed, type: 2}
  - m_RefCount: 1
    m_Data: {fileID: 11400000, guid: 4ba2cf1ddcb9f5942ae675a038dd4015, type: 2}
  - m_RefCount: 1
    m_Data: {fileID: 11400000, guid: cfafbb8b5fe1ef447a56e9ff409d245b, type: 2}
  - m_RefCount: 1
    m_Data: {fileID: 11400000, guid: 91d6851b07e51af43b766bb9c4c5f9e6, type: 2}
  - m_RefCount: 1
    m_Data: {fileID: 11400000, guid: d4e6c01622bf9a247a1a653aa3396272, type: 2}
  - m_RefCount: 1
    m_Data: {fileID: 11400000, guid: 35e7839abb044ec46bec7ad03a129829, type: 2}
  - m_RefCount: 1
    m_Data: {fileID: 11400000, guid: 7214f7a06fe18824796ee55aa7c9a2a7, type: 2}
  - m_RefCount: 1
    m_Data: {fileID: 11400000, guid: c24a5637ffddd164b816cac080576c5c, type: 2}
  - m_RefCount: 1
    m_Data: {fileID: 11400000, guid: 6c746096d1552444e99e74fdd5c17f63, type: 2}
  - m_RefCount: 1
    m_Data: {fileID: 11400000, guid: 8f2182bf54bd85541818e48695ed58cd, type: 2}
  - m_RefCount: 1
    m_Data: {fileID: 11400000, guid: 84149d7c3e0844b49a744b77f9d1c689, type: 2}
  - m_RefCount: 1
    m_Data: {fileID: 11400000, guid: ec04a1ad74cd1644db59c81d43016aed, type: 2}
  - m_RefCount: 1
    m_Data: {fileID: 11400000, guid: 65ed20f44b007f946a3064576a6e9270, type: 2}
  - m_RefCount: 1
    m_Data: {fileID: 11400000, guid: 86232028e5629fa498b55b8eaaabffc9, type: 2}
  - m_RefCount: 1
    m_Data: {fileID: 11400000, guid: bc00a1134e7fd084a83aaca61f44f619, type: 2}
  - m_RefCount: 1
    m_Data: {fileID: 11400000, guid: c1774f7ce327e944baa65d56be8e877c, type: 2}
  - m_RefCount: 1
    m_Data: {fileID: 11400000, guid: 8b3d5bd187ba6554ca81c6a64b9efead, type: 2}
  - m_RefCount: 1
    m_Data: {fileID: 11400000, guid: 9f043eb41cf1c3444a52673087bbaa92, type: 2}
  - m_RefCount: 1
    m_Data: {fileID: 11400000, guid: 5d54bb679c3a404488db10f59b777cc9, type: 2}
  - m_RefCount: 1
    m_Data: {fileID: 11400000, guid: b810c7428b31f8148b2c0d4afef3fa03, type: 2}
  - m_RefCount: 1
    m_Data: {fileID: 11400000, guid: 47e7cca014b5e9a438e6221bbd0d3586, type: 2}
  - m_RefCount: 1
    m_Data: {fileID: 11400000, guid: bf5d30ac8a4bbac4380f9dd182d0822f, type: 2}
  - m_RefCount: 1
    m_Data: {fileID: 11400000, guid: 15bf5af2ae1a9a24f9310f9909988e07, type: 2}
  - m_RefCount: 1
    m_Data: {fileID: 11400000, guid: dbb135c8954a56e42b12a0347695f701, type: 2}
  - m_RefCount: 1
    m_Data: {fileID: 11400000, guid: 444a34fd18ea70b4f8add4fe79a1f96e, type: 2}
  - m_RefCount: 1
    m_Data: {fileID: 11400000, guid: 1ee45f9c7634e8345aac042f0dd36e0b, type: 2}
  - m_RefCount: 1
    m_Data: {fileID: 11400000, guid: eaa8b4ab78adf2b459c6dc07e88e99c0, type: 2}
  - m_RefCount: 1
    m_Data: {fileID: 11400000, guid: bb7a8dc36214c3a4ea9e3c22c3937ab7, type: 2}
  - m_RefCount: 1
    m_Data: {fileID: 11400000, guid: 203c4e34940279c40b5316171c9a948c, type: 2}
  - m_RefCount: 1
    m_Data: {fileID: 11400000, guid: 34db7eaa362eace419c6d7cdf2270e80, type: 2}
  - m_RefCount: 1
    m_Data: {fileID: 11400000, guid: 8777f11d8dcb5e0409e1863984b3ec20, type: 2}
  - m_RefCount: 1
    m_Data: {fileID: 11400000, guid: e01290a93cb17c7499c37922d12a1e6e, type: 2}
  - m_RefCount: 1
    m_Data: {fileID: 11400000, guid: 39e0c3b2cdc78684da3ff919b1bcc5b9, type: 2}
  - m_RefCount: 1
    m_Data: {fileID: 11400000, guid: 67c8f8698ac97624580229147d27471e, type: 2}
  - m_RefCount: 1
    m_Data: {fileID: 11400000, guid: b0ff6145e471386438caad34c1a11371, type: 2}
  - m_RefCount: 1
    m_Data: {fileID: 11400000, guid: e84547c6b3cf0df43a778496afed4322, type: 2}
  - m_RefCount: 1
    m_Data: {fileID: 11400000, guid: 79fabe6392232ae438629713ac5d1cee, type: 2}
  - m_RefCount: 1
    m_Data: {fileID: 11400000, guid: ce5fe48652208664f957ae8e96ca834b, type: 2}
  - m_RefCount: 1
    m_Data: {fileID: 11400000, guid: 3c8230491bbd508459a1f4d762578161, type: 2}
  - m_RefCount: 1
    m_Data: {fileID: 11400000, guid: b40007e6d5c757d4bb544054be48321c, type: 2}
  - m_RefCount: 1
    m_Data: {fileID: 11400000, guid: d00134aaf5f26a34fb4e2715e61065b8, type: 2}
  - m_RefCount: 1
    m_Data: {fileID: 11400000, guid: 6cb626881d4291b4dbdf073373345ce7, type: 2}
  - m_RefCount: 1
    m_Data: {fileID: 11400000, guid: 2efada27d4824f84ea70f06af581cd25, type: 2}
  - m_RefCount: 1
    m_Data: {fileID: 11400000, guid: 0df130eab54108d438d0de9ac11660d8, type: 2}
  - m_RefCount: 1
    m_Data: {fileID: 11400000, guid: 35343cbe69ab23b4fa811bdcf634f0f2, type: 2}
  - m_RefCount: 1
    m_Data: {fileID: 11400000, guid: 46527bce3d3ef1740ac4869ad89094ec, type: 2}
  - m_RefCount: 1
    m_Data: {fileID: 11400000, guid: e4d5405d6a69c8347b6e55e7f9f54a71, type: 2}
  - m_RefCount: 1
    m_Data: {fileID: 11400000, guid: c3a5e7ce20f86bf46b448bd6703be06c, type: 2}
  - m_RefCount: 1
    m_Data: {fileID: 11400000, guid: 0ef6dff8f444aa94fb2e562fc8bef7aa, type: 2}
  - m_RefCount: 1
    m_Data: {fileID: 11400000, guid: c771879fc7e2df449b09e0150c3f8473, type: 2}
  - m_RefCount: 1
    m_Data: {fileID: 11400000, guid: 35bea30d9d871da4e83ceadb0c593b3f, type: 2}
  - m_RefCount: 1
    m_Data: {fileID: 11400000, guid: 08865287a201c1342b73a02711f8ff7a, type: 2}
  - m_RefCount: 1
    m_Data: {fileID: 11400000, guid: cc402a3d6ba467143af97a95e0ff518b, type: 2}
  - m_RefCount: 1
    m_Data: {fileID: 11400000, guid: f46123a0e9bc2d443b78feb6e323bd86, type: 2}
  - m_RefCount: 1
    m_Data: {fileID: 11400000, guid: 49745a8dc68d4804aae3ba24ef5cccfd, type: 2}
  - m_RefCount: 1
    m_Data: {fileID: 11400000, guid: f2ada42539bd3bf4a8fa71bc7c5474ac, type: 2}
  - m_RefCount: 1
    m_Data: {fileID: 11400000, guid: b2848bd89bb655a4aacabc756ea58087, type: 2}
  - m_RefCount: 1
    m_Data: {fileID: 11400000, guid: 53058a91d312d6440b2654ac2d5c047b, type: 2}
  - m_RefCount: 1
    m_Data: {fileID: 11400000, guid: 2f3ee00b2ac7a3c429473a98fbd3bd30, type: 2}
  - m_RefCount: 1
    m_Data: {fileID: 11400000, guid: 159428aaaf023bd459b8c2833361fe1d, type: 2}
  - m_RefCount: 1
    m_Data: {fileID: 11400000, guid: 967772ddbecaa2042803af9d2f6b078e, type: 2}
  - m_RefCount: 1
    m_Data: {fileID: 11400000, guid: c4e114557235fcf4b9b8463fa48abdc3, type: 2}
  - m_RefCount: 1
    m_Data: {fileID: 11400000, guid: 1a412d54cd10bee4bad36d6ea081404b, type: 2}
  - m_RefCount: 1
    m_Data: {fileID: 11400000, guid: 4514b437d76007a40a73840cd4353ab5, type: 2}
  - m_RefCount: 1
    m_Data: {fileID: 11400000, guid: 704df97f71dc6bd428fd1729a514e8e2, type: 2}
  - m_RefCount: 1
    m_Data: {fileID: 11400000, guid: 1da954fbdbea7cb49b62083c6e20a548, type: 2}
  - m_RefCount: 1
    m_Data: {fileID: 11400000, guid: 150f5592daadb78479f83e26394dbc49, type: 2}
  - m_RefCount: 1
    m_Data: {fileID: 11400000, guid: ad68d3dfdfb802d4086906661f0fa5c3, type: 2}
  - m_RefCount: 1
    m_Data: {fileID: 11400000, guid: ed61dc70bf027884ba47dbf6f5dd040b, type: 2}
  - m_RefCount: 1
    m_Data: {fileID: 11400000, guid: 42054f2721b1d9d48b2c45bcb462f7a0, type: 2}
  - m_RefCount: 1
    m_Data: {fileID: 11400000, guid: 74d661ca040acb4408eb7c7ba857dc31, type: 2}
  - m_RefCount: 1
    m_Data: {fileID: 11400000, guid: 79990edec752a7b4a8eb99027913410e, type: 2}
  - m_RefCount: 1
    m_Data: {fileID: 11400000, guid: 8067228df495ac04ba9b7f2325320ec4, type: 2}
  - m_RefCount: 1
    m_Data: {fileID: 11400000, guid: 7a8fec96ce063594fa2097d8889892cc, type: 2}
  - m_RefCount: 1
    m_Data: {fileID: 11400000, guid: f72755ab28bdd4248ab58112db097084, type: 2}
  - m_RefCount: 1
    m_Data: {fileID: 11400000, guid: 5ebf6800ce6e72e4e97b12615589835c, type: 2}
  - m_RefCount: 1
    m_Data: {fileID: 11400000, guid: 85bc07819df3a204dae41ed9949ff91c, type: 2}
  - m_RefCount: 1
    m_Data: {fileID: 11400000, guid: 3fdacde0085221045b35f08ab4e49dc2, type: 2}
  - m_RefCount: 1
    m_Data: {fileID: 11400000, guid: 903ca78e662405f4a8497e6a9aede34f, type: 2}
  - m_RefCount: 1
    m_Data: {fileID: 11400000, guid: c073ce72697ab98409b556e6238f41a5, type: 2}
  - m_RefCount: 1
    m_Data: {fileID: 11400000, guid: 88301d3c7f689684688c2a7ecb235ed1, type: 2}
  - m_RefCount: 1
    m_Data: {fileID: 11400000, guid: 23764eeb9f68f9847818ba3087880f50, type: 2}
  - m_RefCount: 1
    m_Data: {fileID: 11400000, guid: 4607a5e953f6da046a63db91f4ceeb69, type: 2}
  - m_RefCount: 1
    m_Data: {fileID: 11400000, guid: a1623887ccd5dd9458ba96d2da3a99ae, type: 2}
  - m_RefCount: 1
    m_Data: {fileID: 11400000, guid: 81376f98e8cc54b4cb8fd083cd558d67, type: 2}
  - m_RefCount: 1
    m_Data: {fileID: 11400000, guid: 1bb7532d25994a54b9df38467e505732, type: 2}
  - m_RefCount: 1
    m_Data: {fileID: 11400000, guid: 746cc2937be89b74c9f01e075e9ac5c2, type: 2}
  - m_RefCount: 1
    m_Data: {fileID: 11400000, guid: f01e4ad2c786e9b4b9342d405b79a9bd, type: 2}
  - m_RefCount: 1
    m_Data: {fileID: 11400000, guid: 635d3ba1f4999d54ba081af16153140e, type: 2}
  - m_RefCount: 1
    m_Data: {fileID: 11400000, guid: 9ac93765e5edfbe45b13fb1ab900f5c1, type: 2}
  - m_RefCount: 1
    m_Data: {fileID: 11400000, guid: 26614d08f455d9c46920c93925b0b871, type: 2}
  - m_RefCount: 1
    m_Data: {fileID: 11400000, guid: de2f26c6ca92b3f4ba56ef7bd2106b7f, type: 2}
  - m_RefCount: 1
    m_Data: {fileID: 11400000, guid: 3c315d77e35a7ad42adfffc053c5f963, type: 2}
  - m_RefCount: 1
    m_Data: {fileID: 11400000, guid: 97eb0063c731f8a428ce3795bbc1d036, type: 2}
  - m_RefCount: 1
    m_Data: {fileID: 11400000, guid: 0c2f7dfadba67854f93362ad44a005e2, type: 2}
  - m_RefCount: 1
    m_Data: {fileID: 11400000, guid: 79b65e6b35c91524b8cfbbc95f98d300, type: 2}
  - m_RefCount: 1
    m_Data: {fileID: 11400000, guid: 5a6cc70f34583ea4689e0ebc45e3b217, type: 2}
  - m_RefCount: 1
    m_Data: {fileID: 11400000, guid: fb4c9831e571a0847a15899e08dacaad, type: 2}
  - m_RefCount: 1
    m_Data: {fileID: 11400000, guid: e9e049ddb4c46ff4db5c6de5d7dabd0c, type: 2}
  - m_RefCount: 1
    m_Data: {fileID: 11400000, guid: dcb9dcf1ec3dfb240a8e0c31e3651d23, type: 2}
  - m_RefCount: 1
    m_Data: {fileID: 11400000, guid: 311fdb26554eced4093c8851d1b471ec, type: 2}
  - m_RefCount: 1
    m_Data: {fileID: 11400000, guid: 04900a8f616b38e4b91c9ac39c8b2f60, type: 2}
  - m_RefCount: 1
    m_Data: {fileID: 11400000, guid: 41c0c3e96ddfa3c4488c73a5b6bf403d, type: 2}
  - m_RefCount: 1
    m_Data: {fileID: 11400000, guid: 58f0c0cad7dc21c47ac043cc8ec010bd, type: 2}
  m_TileSpriteArray:
  - m_RefCount: 1
    m_Data: {fileID: 1563867259, guid: f15472e0666d044db9bfb88bc170ad9b, type: 3}
  - m_RefCount: 1
    m_Data: {fileID: 54223712, guid: f15472e0666d044db9bfb88bc170ad9b, type: 3}
  - m_RefCount: 1
    m_Data: {fileID: 2075186713, guid: f15472e0666d044db9bfb88bc170ad9b, type: 3}
  - m_RefCount: 1
    m_Data: {fileID: 944231636, guid: f15472e0666d044db9bfb88bc170ad9b, type: 3}
  - m_RefCount: 1
    m_Data: {fileID: -1723321595, guid: f15472e0666d044db9bfb88bc170ad9b, type: 3}
  - m_RefCount: 1
    m_Data: {fileID: -969181585, guid: f15472e0666d044db9bfb88bc170ad9b, type: 3}
  - m_RefCount: 1
    m_Data: {fileID: -918669736, guid: f15472e0666d044db9bfb88bc170ad9b, type: 3}
  - m_RefCount: 1
    m_Data: {fileID: -634503865, guid: f15472e0666d044db9bfb88bc170ad9b, type: 3}
  - m_RefCount: 1
    m_Data: {fileID: -1081940564, guid: f15472e0666d044db9bfb88bc170ad9b, type: 3}
  - m_RefCount: 1
    m_Data: {fileID: 667850918, guid: f15472e0666d044db9bfb88bc170ad9b, type: 3}
  - m_RefCount: 1
    m_Data: {fileID: -2015002678, guid: f15472e0666d044db9bfb88bc170ad9b, type: 3}
  - m_RefCount: 1
    m_Data: {fileID: -917180381, guid: f15472e0666d044db9bfb88bc170ad9b, type: 3}
  - m_RefCount: 1
    m_Data: {fileID: -642778124, guid: f15472e0666d044db9bfb88bc170ad9b, type: 3}
  - m_RefCount: 1
    m_Data: {fileID: -215288511, guid: f15472e0666d044db9bfb88bc170ad9b, type: 3}
  - m_RefCount: 1
    m_Data: {fileID: 624124342, guid: f15472e0666d044db9bfb88bc170ad9b, type: 3}
  - m_RefCount: 1
    m_Data: {fileID: 1016199997, guid: f15472e0666d044db9bfb88bc170ad9b, type: 3}
  - m_RefCount: 1
    m_Data: {fileID: 1905228500, guid: f15472e0666d044db9bfb88bc170ad9b, type: 3}
  - m_RefCount: 1
    m_Data: {fileID: -1064753895, guid: f15472e0666d044db9bfb88bc170ad9b, type: 3}
  - m_RefCount: 1
    m_Data: {fileID: -411596699, guid: f15472e0666d044db9bfb88bc170ad9b, type: 3}
  - m_RefCount: 1
    m_Data: {fileID: -762645986, guid: f15472e0666d044db9bfb88bc170ad9b, type: 3}
  - m_RefCount: 1
    m_Data: {fileID: -401902182, guid: f15472e0666d044db9bfb88bc170ad9b, type: 3}
  - m_RefCount: 1
    m_Data: {fileID: 755217808, guid: f15472e0666d044db9bfb88bc170ad9b, type: 3}
  - m_RefCount: 1
    m_Data: {fileID: 763574577, guid: b8814c83d33f044eaa43a507df945000, type: 3}
  - m_RefCount: 1
    m_Data: {fileID: 583128522, guid: b8814c83d33f044eaa43a507df945000, type: 3}
  - m_RefCount: 1
    m_Data: {fileID: -1822665782, guid: b8814c83d33f044eaa43a507df945000, type: 3}
  - m_RefCount: 1
    m_Data: {fileID: 1082025739, guid: b8814c83d33f044eaa43a507df945000, type: 3}
  - m_RefCount: 1
    m_Data: {fileID: -1218922357, guid: b8814c83d33f044eaa43a507df945000, type: 3}
  - m_RefCount: 1
    m_Data: {fileID: -438366772, guid: b8814c83d33f044eaa43a507df945000, type: 3}
  - m_RefCount: 1
    m_Data: {fileID: -1967765286, guid: b8814c83d33f044eaa43a507df945000, type: 3}
  - m_RefCount: 1
    m_Data: {fileID: 1231782502, guid: b8814c83d33f044eaa43a507df945000, type: 3}
  - m_RefCount: 1
    m_Data: {fileID: -1157140902, guid: b8814c83d33f044eaa43a507df945000, type: 3}
  - m_RefCount: 1
    m_Data: {fileID: 194591067, guid: b8814c83d33f044eaa43a507df945000, type: 3}
  - m_RefCount: 1
    m_Data: {fileID: 1027395320, guid: b8814c83d33f044eaa43a507df945000, type: 3}
  - m_RefCount: 1
    m_Data: {fileID: 252368719, guid: b8814c83d33f044eaa43a507df945000, type: 3}
  - m_RefCount: 1
    m_Data: {fileID: -671117864, guid: b8814c83d33f044eaa43a507df945000, type: 3}
  - m_RefCount: 1
    m_Data: {fileID: -1751304104, guid: b8814c83d33f044eaa43a507df945000, type: 3}
  - m_RefCount: 1
    m_Data: {fileID: 480550662, guid: b8814c83d33f044eaa43a507df945000, type: 3}
  - m_RefCount: 1
    m_Data: {fileID: -909468218, guid: b8814c83d33f044eaa43a507df945000, type: 3}
  - m_RefCount: 1
    m_Data: {fileID: 1015750047, guid: b8814c83d33f044eaa43a507df945000, type: 3}
  - m_RefCount: 1
    m_Data: {fileID: 1044167435, guid: b8814c83d33f044eaa43a507df945000, type: 3}
  - m_RefCount: 1
    m_Data: {fileID: 1726740388, guid: b8814c83d33f044eaa43a507df945000, type: 3}
  - m_RefCount: 1
    m_Data: {fileID: 1527581647, guid: b8814c83d33f044eaa43a507df945000, type: 3}
  - m_RefCount: 1
    m_Data: {fileID: -1123944834, guid: b8814c83d33f044eaa43a507df945000, type: 3}
  - m_RefCount: 1
    m_Data: {fileID: 1687424353, guid: b8814c83d33f044eaa43a507df945000, type: 3}
  - m_RefCount: 1
    m_Data: {fileID: -2012735510, guid: b8814c83d33f044eaa43a507df945000, type: 3}
  - m_RefCount: 1
    m_Data: {fileID: -1510422917, guid: b8814c83d33f044eaa43a507df945000, type: 3}
  - m_RefCount: 1
    m_Data: {fileID: 453671518, guid: b8814c83d33f044eaa43a507df945000, type: 3}
  - m_RefCount: 1
    m_Data: {fileID: 835885214, guid: b8814c83d33f044eaa43a507df945000, type: 3}
  - m_RefCount: 1
    m_Data: {fileID: 1308854101, guid: b8814c83d33f044eaa43a507df945000, type: 3}
  - m_RefCount: 1
    m_Data: {fileID: 1604090548, guid: b8814c83d33f044eaa43a507df945000, type: 3}
  - m_RefCount: 1
    m_Data: {fileID: 816981601, guid: b8814c83d33f044eaa43a507df945000, type: 3}
  - m_RefCount: 1
    m_Data: {fileID: 2071836781, guid: b8814c83d33f044eaa43a507df945000, type: 3}
  - m_RefCount: 1
    m_Data: {fileID: 1936744248, guid: b8814c83d33f044eaa43a507df945000, type: 3}
  - m_RefCount: 1
    m_Data: {fileID: -1279854786, guid: b8814c83d33f044eaa43a507df945000, type: 3}
  - m_RefCount: 1
    m_Data: {fileID: -929008878, guid: b8814c83d33f044eaa43a507df945000, type: 3}
  - m_RefCount: 1
    m_Data: {fileID: 909584671, guid: b8814c83d33f044eaa43a507df945000, type: 3}
  - m_RefCount: 1
    m_Data: {fileID: 719226120, guid: b8814c83d33f044eaa43a507df945000, type: 3}
  - m_RefCount: 1
    m_Data: {fileID: 1900418206, guid: b8814c83d33f044eaa43a507df945000, type: 3}
  - m_RefCount: 1
    m_Data: {fileID: -907729772, guid: b8814c83d33f044eaa43a507df945000, type: 3}
  - m_RefCount: 1
    m_Data: {fileID: -822471474, guid: b8814c83d33f044eaa43a507df945000, type: 3}
  - m_RefCount: 1
    m_Data: {fileID: 1201031599, guid: b8814c83d33f044eaa43a507df945000, type: 3}
  - m_RefCount: 1
    m_Data: {fileID: 648010382, guid: b8814c83d33f044eaa43a507df945000, type: 3}
  - m_RefCount: 1
    m_Data: {fileID: 1237497384, guid: b8814c83d33f044eaa43a507df945000, type: 3}
  - m_RefCount: 1
    m_Data: {fileID: -1822420373, guid: b8814c83d33f044eaa43a507df945000, type: 3}
  - m_RefCount: 1
    m_Data: {fileID: -835861429, guid: b8814c83d33f044eaa43a507df945000, type: 3}
  - m_RefCount: 1
    m_Data: {fileID: 1312539774, guid: b8814c83d33f044eaa43a507df945000, type: 3}
  - m_RefCount: 1
    m_Data: {fileID: 2088993180, guid: b8814c83d33f044eaa43a507df945000, type: 3}
  - m_RefCount: 1
    m_Data: {fileID: 1461781199, guid: b8814c83d33f044eaa43a507df945000, type: 3}
  - m_RefCount: 1
    m_Data: {fileID: -1541319104, guid: b8814c83d33f044eaa43a507df945000, type: 3}
  - m_RefCount: 1
    m_Data: {fileID: -1766054877, guid: b8814c83d33f044eaa43a507df945000, type: 3}
  - m_RefCount: 1
    m_Data: {fileID: -129706323, guid: b8814c83d33f044eaa43a507df945000, type: 3}
  - m_RefCount: 1
    m_Data: {fileID: 448353446, guid: b8814c83d33f044eaa43a507df945000, type: 3}
  - m_RefCount: 1
    m_Data: {fileID: -969897167, guid: b8814c83d33f044eaa43a507df945000, type: 3}
  - m_RefCount: 1
    m_Data: {fileID: 1602134219, guid: b8814c83d33f044eaa43a507df945000, type: 3}
  - m_RefCount: 1
    m_Data: {fileID: -207263446, guid: b8814c83d33f044eaa43a507df945000, type: 3}
  - m_RefCount: 1
    m_Data: {fileID: 1479276965, guid: b8814c83d33f044eaa43a507df945000, type: 3}
  - m_RefCount: 1
    m_Data: {fileID: 1765446412, guid: b8814c83d33f044eaa43a507df945000, type: 3}
  - m_RefCount: 1
    m_Data: {fileID: 1689190038, guid: b8814c83d33f044eaa43a507df945000, type: 3}
  - m_RefCount: 1
    m_Data: {fileID: 927859144, guid: b8814c83d33f044eaa43a507df945000, type: 3}
  - m_RefCount: 1
    m_Data: {fileID: 1411788124, guid: b8814c83d33f044eaa43a507df945000, type: 3}
  - m_RefCount: 1
    m_Data: {fileID: -511248777, guid: b8814c83d33f044eaa43a507df945000, type: 3}
  - m_RefCount: 1
    m_Data: {fileID: 131391379, guid: b8814c83d33f044eaa43a507df945000, type: 3}
  - m_RefCount: 1
    m_Data: {fileID: -1234938132, guid: b8814c83d33f044eaa43a507df945000, type: 3}
  - m_RefCount: 1
    m_Data: {fileID: -1017752355, guid: b8814c83d33f044eaa43a507df945000, type: 3}
  - m_RefCount: 1
    m_Data: {fileID: -1529303390, guid: b8814c83d33f044eaa43a507df945000, type: 3}
  - m_RefCount: 1
    m_Data: {fileID: -1271514511, guid: b8814c83d33f044eaa43a507df945000, type: 3}
  - m_RefCount: 1
    m_Data: {fileID: -1336018455, guid: b8814c83d33f044eaa43a507df945000, type: 3}
  - m_RefCount: 1
    m_Data: {fileID: 1941298922, guid: b8814c83d33f044eaa43a507df945000, type: 3}
  - m_RefCount: 1
    m_Data: {fileID: 1460617480, guid: b8814c83d33f044eaa43a507df945000, type: 3}
  - m_RefCount: 1
    m_Data: {fileID: -1272274588, guid: b8814c83d33f044eaa43a507df945000, type: 3}
  - m_RefCount: 1
    m_Data: {fileID: -1591930137, guid: b8814c83d33f044eaa43a507df945000, type: 3}
  - m_RefCount: 1
    m_Data: {fileID: -2088795647, guid: b8814c83d33f044eaa43a507df945000, type: 3}
  - m_RefCount: 1
    m_Data: {fileID: 1218167998, guid: b8814c83d33f044eaa43a507df945000, type: 3}
  - m_RefCount: 1
    m_Data: {fileID: -1680164575, guid: b8814c83d33f044eaa43a507df945000, type: 3}
  - m_RefCount: 1
    m_Data: {fileID: 87931015, guid: b8814c83d33f044eaa43a507df945000, type: 3}
  - m_RefCount: 1
    m_Data: {fileID: 1522510646, guid: b8814c83d33f044eaa43a507df945000, type: 3}
  - m_RefCount: 1
    m_Data: {fileID: 501753296, guid: b8814c83d33f044eaa43a507df945000, type: 3}
  - m_RefCount: 1
    m_Data: {fileID: -1029061225, guid: b8814c83d33f044eaa43a507df945000, type: 3}
  - m_RefCount: 1
    m_Data: {fileID: -1811947225, guid: b8814c83d33f044eaa43a507df945000, type: 3}
  - m_RefCount: 1
    m_Data: {fileID: -469637487, guid: b8814c83d33f044eaa43a507df945000, type: 3}
  - m_RefCount: 1
    m_Data: {fileID: 1917220890, guid: b8814c83d33f044eaa43a507df945000, type: 3}
  - m_RefCount: 1
    m_Data: {fileID: -1232564359, guid: b8814c83d33f044eaa43a507df945000, type: 3}
  - m_RefCount: 1
    m_Data: {fileID: 1819549710, guid: b8814c83d33f044eaa43a507df945000, type: 3}
  - m_RefCount: 1
    m_Data: {fileID: -1779876697, guid: b8814c83d33f044eaa43a507df945000, type: 3}
  - m_RefCount: 1
    m_Data: {fileID: 336498856, guid: b8814c83d33f044eaa43a507df945000, type: 3}
  - m_RefCount: 1
    m_Data: {fileID: -1900064421, guid: b8814c83d33f044eaa43a507df945000, type: 3}
  - m_RefCount: 1
    m_Data: {fileID: -2038720480, guid: b8814c83d33f044eaa43a507df945000, type: 3}
  - m_RefCount: 1
    m_Data: {fileID: -752880453, guid: b8814c83d33f044eaa43a507df945000, type: 3}
  - m_RefCount: 1
    m_Data: {fileID: -1402702804, guid: b8814c83d33f044eaa43a507df945000, type: 3}
  - m_RefCount: 1
    m_Data: {fileID: 585923576, guid: b8814c83d33f044eaa43a507df945000, type: 3}
  - m_RefCount: 1
    m_Data: {fileID: 1012210368, guid: b8814c83d33f044eaa43a507df945000, type: 3}
  - m_RefCount: 1
    m_Data: {fileID: 1260456063, guid: b8814c83d33f044eaa43a507df945000, type: 3}
  - m_RefCount: 1
    m_Data: {fileID: -588954201, guid: b8814c83d33f044eaa43a507df945000, type: 3}
  - m_RefCount: 1
    m_Data: {fileID: -438910177, guid: b8814c83d33f044eaa43a507df945000, type: 3}
  - m_RefCount: 1
    m_Data: {fileID: 1398800583, guid: b8814c83d33f044eaa43a507df945000, type: 3}
  - m_RefCount: 1
    m_Data: {fileID: -2117333427, guid: b8814c83d33f044eaa43a507df945000, type: 3}
  - m_RefCount: 1
    m_Data: {fileID: 1337367689, guid: b8814c83d33f044eaa43a507df945000, type: 3}
  - m_RefCount: 1
    m_Data: {fileID: -1998488890, guid: b8814c83d33f044eaa43a507df945000, type: 3}
  - m_RefCount: 1
    m_Data: {fileID: -1465576861, guid: b8814c83d33f044eaa43a507df945000, type: 3}
  - m_RefCount: 1
    m_Data: {fileID: 1242248090, guid: b8814c83d33f044eaa43a507df945000, type: 3}
  - m_RefCount: 1
    m_Data: {fileID: 1428618555, guid: b8814c83d33f044eaa43a507df945000, type: 3}
  - m_RefCount: 1
    m_Data: {fileID: 1450018197, guid: b8814c83d33f044eaa43a507df945000, type: 3}
  - m_RefCount: 1
    m_Data: {fileID: -264180490, guid: b8814c83d33f044eaa43a507df945000, type: 3}
  - m_RefCount: 1
    m_Data: {fileID: -63462564, guid: b8814c83d33f044eaa43a507df945000, type: 3}
  - m_RefCount: 1
    m_Data: {fileID: -1380710709, guid: b8814c83d33f044eaa43a507df945000, type: 3}
  - m_RefCount: 1
    m_Data: {fileID: -224978887, guid: b8814c83d33f044eaa43a507df945000, type: 3}
  - m_RefCount: 1
    m_Data: {fileID: -545877827, guid: b8814c83d33f044eaa43a507df945000, type: 3}
  - m_RefCount: 1
    m_Data: {fileID: -373306239, guid: b8814c83d33f044eaa43a507df945000, type: 3}
  - m_RefCount: 1
    m_Data: {fileID: -1538583695, guid: b8814c83d33f044eaa43a507df945000, type: 3}
  m_TileMatrixArray:
  - m_RefCount: 129
    m_Data:
      e00: 1
      e01: 0
      e02: 0
      e03: 0
      e10: 0
      e11: 1
      e12: 0
      e13: 0
      e20: 0
      e21: 0
      e22: 1
      e23: 0
      e30: 0
      e31: 0
      e32: 0
      e33: 1
  m_TileColorArray:
  - m_RefCount: 129
    m_Data: {r: 1, g: 1, b: 1, a: 1}
  m_TileObjectToInstantiateArray: []
  m_AnimationFrameRate: 1
  m_Color: {r: 1, g: 1, b: 1, a: 1}
  m_Origin: {x: -5, y: -15, z: 0}
  m_Size: {x: 14, y: 17, z: 1}
  m_TileAnchor: {x: 0.5, y: 0.5, z: 0}
  m_TileOrientation: 0
  m_TileOrientationMatrix:
    e00: 1
    e01: 0
    e02: 0
    e03: 0
    e10: 0
    e11: 1
    e12: 0
    e13: 0
    e20: 0
    e21: 0
    e22: 1
    e23: 0
    e30: 0
    e31: 0
    e32: 0
    e33: 1
--- !u!483693784 &9138847929008668657
TilemapRenderer:
  m_ObjectHideFlags: 0
  m_CorrespondingSourceObject: {fileID: 0}
  m_PrefabInstance: {fileID: 0}
  m_PrefabAsset: {fileID: 0}
  m_GameObject: {fileID: 565504376134717147}
  m_Enabled: 1
  m_CastShadows: 0
  m_ReceiveShadows: 0
  m_DynamicOccludee: 0
  m_StaticShadowCaster: 0
  m_MotionVectors: 1
  m_LightProbeUsage: 0
  m_ReflectionProbeUsage: 0
  m_RayTracingMode: 0
  m_RayTraceProcedural: 0
  m_RenderingLayerMask: 1
  m_RendererPriority: 0
  m_Materials:
  - {fileID: 10754, guid: 0000000000000000f000000000000000, type: 0}
  m_StaticBatchInfo:
    firstSubMesh: 0
    subMeshCount: 0
  m_StaticBatchRoot: {fileID: 0}
  m_ProbeAnchor: {fileID: 0}
  m_LightProbeVolumeOverride: {fileID: 0}
  m_ScaleInLightmap: 1
  m_ReceiveGI: 1
  m_PreserveUVs: 0
  m_IgnoreNormalsForChartDetection: 0
  m_ImportantGI: 0
  m_StitchLightmapSeams: 1
  m_SelectedEditorRenderState: 0
  m_MinimumChartSize: 4
  m_AutoUVMaxDistance: 0.5
  m_AutoUVMaxAngle: 89
  m_LightmapParameters: {fileID: 0}
  m_SortingLayerID: 0
  m_SortingLayer: 0
  m_SortingOrder: 0
  m_ChunkSize: {x: 32, y: 32, z: 32}
  m_ChunkCullingBounds: {x: 0, y: 0, z: 0}
  m_MaxChunkCount: 16
  m_MaxFrameAge: 16
  m_SortOrder: 0
  m_Mode: 0
  m_DetectChunkCullingBounds: 0
  m_MaskInteraction: 0
--- !u!1 &5357178813165936984
GameObject:
  m_ObjectHideFlags: 0
  m_CorrespondingSourceObject: {fileID: 0}
  m_PrefabInstance: {fileID: 0}
  m_PrefabAsset: {fileID: 0}
  serializedVersion: 6
  m_Component:
  - component: {fileID: 886872301419905290}
  - component: {fileID: 5314055285306864302}
  m_Layer: 0
  m_Name: Top Down Adventure Tilemap
  m_TagString: Untagged
  m_Icon: {fileID: 0}
  m_NavMeshLayer: 0
  m_StaticEditorFlags: 0
  m_IsActive: 1
--- !u!4 &886872301419905290
Transform:
  m_ObjectHideFlags: 0
  m_CorrespondingSourceObject: {fileID: 0}
  m_PrefabInstance: {fileID: 0}
  m_PrefabAsset: {fileID: 0}
  m_GameObject: {fileID: 5357178813165936984}
  serializedVersion: 2
  m_LocalRotation: {x: 0, y: 0, z: 0, w: 1}
  m_LocalPosition: {x: 0, y: 0, z: 0}
  m_LocalScale: {x: 1, y: 1, z: 1}
  m_ConstrainProportionsScale: 0
  m_Children:
  - {fileID: 5905685740432976054}
  m_Father: {fileID: 0}
  m_LocalEulerAnglesHint: {x: 0, y: 0, z: 0}
--- !u!156049354 &5314055285306864302
Grid:
  m_ObjectHideFlags: 0
  m_CorrespondingSourceObject: {fileID: 0}
  m_PrefabInstance: {fileID: 0}
  m_PrefabAsset: {fileID: 0}
  m_GameObject: {fileID: 5357178813165936984}
  m_Enabled: 1
  m_CellSize: {x: 0.16, y: 0.16, z: 0}
  m_CellGap: {x: 0, y: 0, z: 0}
  m_CellLayout: 0
  m_CellSwizzle: 0
--- !u!114 &673397339170210271
MonoBehaviour:
  m_ObjectHideFlags: 0
  m_CorrespondingSourceObject: {fileID: 0}
  m_PrefabInstance: {fileID: 0}
  m_PrefabAsset: {fileID: 0}
  m_GameObject: {fileID: 0}
  m_Enabled: 1
  m_EditorHideFlags: 0
  m_Script: {fileID: 12395, guid: 0000000000000000e000000000000000, type: 0}
  m_Name: Palette Settings
  m_EditorClassIdentifier: 
  cellSizing: 0
  m_TransparencySortMode: 0
  m_TransparencySortAxis: {x: 0, y: 0, z: 1}
