%YAML 1.1
%TAG !u! tag:unity3d.com,2011:
--- !u!74 &7400000
AnimationClip:
  m_ObjectHideFlags: 0
  m_CorrespondingSourceObject: {fileID: 0}
  m_PrefabInstance: {fileID: 0}
  m_PrefabAsset: {fileID: 0}
  m_Name: PlayerMove
  serializedVersion: 7
  m_Legacy: 0
  m_Compressed: 0
  m_UseHighQualityCurve: 1
  m_RotationCurves: []
  m_CompressedRotationCurves: []
  m_EulerCurves: []
  m_PositionCurves: []
  m_ScaleCurves: []
  m_FloatCurves: []
  m_PPtrCurves:
  - serializedVersion: 2
    curve:
    - time: 0
      value: {fileID: 21300000, guid: 4b331f27a73201e48a041462dfef66c4, type: 3}
    - time: 0.083333336
      value: {fileID: 21300000, guid: 96f0c5158e999fc468e6fc10b7af26c3, type: 3}
    - time: 0.16666667
      value: {fileID: 21300000, guid: b7a47a6780db206438a75c1b8e78c019, type: 3}
    - time: 0.25
      value: {fileID: 21300000, guid: 0a6e28cd297a20c4e824ecdccf26f6e1, type: 3}
    - time: 0.33333334
      value: {fileID: 21300000, guid: 6d315d6de3e0295458e218721fe26dc9, type: 3}
    - time: 0.41666666
      value: {fileID: 21300000, guid: 7bf29aa3ba4750c4ebaef5e931542678, type: 3}
    - time: 0.5
      value: {fileID: 21300000, guid: 7f9912ad774f1404ca4909cbac90cf4e, type: 3}
    - time: 0.5833333
      value: {fileID: 21300000, guid: 0ee9a4bbf9c15f649836fceae11fad30, type: 3}
    - time: 0.6666667
      value: {fileID: 21300000, guid: 598228d9706674443a0c9bcf786d4503, type: 3}
    - time: 0.75
      value: {fileID: 21300000, guid: b23d98ebf8e9b9a42afeacd93bcc547d, type: 3}
    - time: 0.8333333
      value: {fileID: 21300000, guid: 688cdb5afaa2e154982dbbebdbdd5281, type: 3}
    - time: 0.9166667
      value: {fileID: 21300000, guid: c6bcdd151d6d32a489928770ad5b9704, type: 3}
    - time: 1
      value: {fileID: 21300000, guid: 828821354341bb643ac80e274305a7dd, type: 3}
    - time: 1.0833334
      value: {fileID: 21300000, guid: 9a04f664f74ec9c49b3e11cf2ec3ff5b, type: 3}
    - time: 1.1666666
      value: {fileID: 21300000, guid: 682434e9cdad3414596633f8f2cde9eb, type: 3}
    - time: 1.25
      value: {fileID: 21300000, guid: da09d7b78edeb5c48b06ea96595c2e3d, type: 3}
    - time: 1.3333334
      value: {fileID: 21300000, guid: 96ae539ea7a647b4c926790c3b68d347, type: 3}
    - time: 1.4166666
      value: {fileID: 21300000, guid: b0e582681ed5a5443a2e994068a0780b, type: 3}
    - time: 1.5
      value: {fileID: 21300000, guid: c2bf22f8f2371884fa85422ec00d4825, type: 3}
    - time: 1.5833334
      value: {fileID: 21300000, guid: 4b9cedb9f3ed54a4aa68f18fc5cdce12, type: 3}
    attribute: m_Sprite
    path: 
    classID: 212
    script: {fileID: 0}
    flags: 2
  m_SampleRate: 12
  m_WrapMode: 0
  m_Bounds:
    m_Center: {x: 0, y: 0, z: 0}
    m_Extent: {x: 0, y: 0, z: 0}
  m_ClipBindingConstant:
    genericBindings:
    - serializedVersion: 2
      path: 0
      attribute: 0
      script: {fileID: 0}
      typeID: 212
      customType: 23
      isPPtrCurve: 1
      isIntCurve: 0
      isSerializeReferenceCurve: 0
    pptrCurveMapping:
    - {fileID: 21300000, guid: 4b331f27a73201e48a041462dfef66c4, type: 3}
    - {fileID: 21300000, guid: 96f0c5158e999fc468e6fc10b7af26c3, type: 3}
    - {fileID: 21300000, guid: b7a47a6780db206438a75c1b8e78c019, type: 3}
    - {fileID: 21300000, guid: 0a6e28cd297a20c4e824ecdccf26f6e1, type: 3}
    - {fileID: 21300000, guid: 6d315d6de3e0295458e218721fe26dc9, type: 3}
    - {fileID: 21300000, guid: 7bf29aa3ba4750c4ebaef5e931542678, type: 3}
    - {fileID: 21300000, guid: 7f9912ad774f1404ca4909cbac90cf4e, type: 3}
    - {fileID: 21300000, guid: 0ee9a4bbf9c15f649836fceae11fad30, type: 3}
    - {fileID: 21300000, guid: 598228d9706674443a0c9bcf786d4503, type: 3}
    - {fileID: 21300000, guid: b23d98ebf8e9b9a42afeacd93bcc547d, type: 3}
    - {fileID: 21300000, guid: 688cdb5afaa2e154982dbbebdbdd5281, type: 3}
    - {fileID: 21300000, guid: c6bcdd151d6d32a489928770ad5b9704, type: 3}
    - {fileID: 21300000, guid: 828821354341bb643ac80e274305a7dd, type: 3}
    - {fileID: 21300000, guid: 9a04f664f74ec9c49b3e11cf2ec3ff5b, type: 3}
    - {fileID: 21300000, guid: 682434e9cdad3414596633f8f2cde9eb, type: 3}
    - {fileID: 21300000, guid: da09d7b78edeb5c48b06ea96595c2e3d, type: 3}
    - {fileID: 21300000, guid: 96ae539ea7a647b4c926790c3b68d347, type: 3}
    - {fileID: 21300000, guid: b0e582681ed5a5443a2e994068a0780b, type: 3}
    - {fileID: 21300000, guid: c2bf22f8f2371884fa85422ec00d4825, type: 3}
    - {fileID: 21300000, guid: 4b9cedb9f3ed54a4aa68f18fc5cdce12, type: 3}
  m_AnimationClipSettings:
    serializedVersion: 2
    m_AdditiveReferencePoseClip: {fileID: 0}
    m_AdditiveReferencePoseTime: 0
    m_StartTime: 0
    m_StopTime: 1.6666667
    m_OrientationOffsetY: 0
    m_Level: 0
    m_CycleOffset: 0
    m_HasAdditiveReferencePose: 0
    m_LoopTime: 1
    m_LoopBlend: 0
    m_LoopBlendOrientation: 0
    m_LoopBlendPositionY: 0
    m_LoopBlendPositionXZ: 0
    m_KeepOriginalOrientation: 0
    m_KeepOriginalPositionY: 1
    m_KeepOriginalPositionXZ: 0
    m_HeightFromFeet: 0
    m_Mirror: 0
  m_EditorCurves: []
  m_EulerEditorCurves: []
  m_HasGenericRootTransform: 0
  m_HasMotionFloatCurves: 0
  m_Events: []
